{
  "api.gateway.http.port": 8787,
  "api.gateway.http.address": "0.0.0.0",
  "api.gateway.http.address.external": "192.168.99.100",
  "circuit-breaker": {
    "name": "api-gateway-cb",
    "timeout": 10000,
    "max-failures": 5
  }
}